\relax 
\providecommand\zref@newlabel[2]{}
\@writefile{toc}{\contentsline {chapter}{\numberline {3}Stacks and Queues}{2}}
\@writefile{lof}{\addvspace {10\p@ }}
\@writefile{lot}{\addvspace {10\p@ }}
\@writefile{toc}{\contentsline {section}{\numberline {3.1}Input files}{3}}
\@writefile{toc}{\contentsline {section}{\numberline {3.2}Output files}{3}}
\@writefile{toc}{\contentsline {section}{\numberline {3.3}Coding}{5}}
\@writefile{toc}{\contentsline {subsection}{\numberline {3.3.1}Queue}{5}}
\@writefile{toc}{\contentsline {subsection}{\numberline {3.3.2}Stack}{6}}
\@writefile{toc}{\contentsline {subsection}{\numberline {3.3.3}FactoryProgram}{7}}
\@writefile{toc}{\contentsline {subsubsection}{FactoryProgram constructor (done)}{7}}
\@writefile{toc}{\contentsline {subsubsection}{FactoryProgram destructor (done)}{7}}
\@writefile{toc}{\contentsline {subsubsection}{FactoryProgram::Run() (done)}{7}}
\@writefile{toc}{\contentsline {subsubsection}{void FactoryProgram::LoadIngredients()}{8}}
\@writefile{toc}{\contentsline {subsubsection}{void FactoryProgram::AssembleBurgers()}{8}}
\@writefile{toc}{\contentsline {subsubsection}{bool FactoryProgram::IsIngredientAcceptable( const Ingredient\& ingredient ) const}{9}}
\@writefile{toc}{\contentsline {subsubsection}{void FactoryProgram::CheckBurgerQuality()}{9}}
\@writefile{toc}{\contentsline {subsubsection}{void FactoryProgram::CheckBurgerCompletion()}{10}}
\@writefile{toc}{\contentsline {subsubsection}{void FactoryProgram::PutIngredientOnBurger( Burger\& burger, const Ingredient\& ingredient ) (done)}{11}}
\@writefile{toc}{\contentsline {subsubsection}{void FactoryProgram::DeliverBurgers()}{11}}
\@writefile{toc}{\contentsline {section}{\numberline {3.4}Turn in}{12}}
\newlabel{LastPage}{{}{12}}
\xdef\lastpage@lastpage{12}
\gdef\lastpage@lastpageHy{}
