\relax 
\providecommand\zref@newlabel[2]{}
\@writefile{toc}{\contentsline {chapter}{\numberline {4}Searching and Sorting}{2}}
\@writefile{lof}{\addvspace {10\p@ }}
\@writefile{lot}{\addvspace {10\p@ }}
\@writefile{toc}{\contentsline {section}{\numberline {4.1}Part 1: Investigating Sorting Algorithms}{3}}
\@writefile{toc}{\contentsline {paragraph}{Input array:}{3}}
\@writefile{toc}{\contentsline {subsection}{\numberline {4.1.1}Selection Sort}{4}}
\@writefile{toc}{\contentsline {paragraph}{Efficiency:}{4}}
\@writefile{toc}{\contentsline {paragraph}{Helper function: findIndexOfLargest}{4}}
\@writefile{toc}{\contentsline {paragraph}{Sort function: selectionSort}{5}}
\@writefile{toc}{\contentsline {subsection}{\numberline {4.1.2}Bubble Sort}{6}}
\@writefile{toc}{\contentsline {paragraph}{Efficiency:}{6}}
\@writefile{toc}{\contentsline {paragraph}{Sort function: bubbleSort}{6}}
\@writefile{toc}{\contentsline {subsection}{\numberline {4.1.3}Insertion Sort}{7}}
\@writefile{toc}{\contentsline {paragraph}{Efficiency:}{7}}
\@writefile{toc}{\contentsline {paragraph}{Sort function: insertionSort}{7}}
\@writefile{toc}{\contentsline {subsection}{\numberline {4.1.4}Merge Sort}{9}}
\@writefile{toc}{\contentsline {paragraph}{Efficiency:}{9}}
\@writefile{toc}{\contentsline {paragraph}{Helper function: merge}{9}}
\@writefile{toc}{\contentsline {paragraph}{Sort function: mergeSort}{11}}
\@writefile{toc}{\contentsline {section}{\numberline {4.2}Part 2: Implementing Sorting Algorithms}{12}}
\@writefile{toc}{\contentsline {subsection}{\numberline {4.2.1}Input files}{12}}
\@writefile{toc}{\contentsline {subsection}{\numberline {4.2.2}Data files}{13}}
\@writefile{toc}{\contentsline {section}{\numberline {4.3}The program}{14}}
\@writefile{toc}{\contentsline {subsection}{\numberline {4.3.1}Program code}{16}}
\@writefile{toc}{\contentsline {subsubsection}{Writing Sorting Algorithms}{16}}
\@writefile{toc}{\contentsline {paragraph}{Generic version:}{16}}
\@writefile{toc}{\contentsline {paragraph}{Special version:}{16}}
\@writefile{toc}{\contentsline {subsubsection}{Updating main()}{17}}
\@writefile{toc}{\contentsline {section}{\numberline {4.4}Turn in}{17}}
\newlabel{LastPage}{{}{17}}
\xdef\lastpage@lastpage{17}
\gdef\lastpage@lastpageHy{}
