\relax 
\providecommand\zref@newlabel[2]{}
\providecommand\tcolorbox@label[2]{}
\@writefile{toc}{\contentsline {section}{\numberline {1.1}Information}{1}}
\@writefile{toc}{\contentsline {paragraph}{ Topics: }{1}}
\@writefile{toc}{\contentsline {paragraph}{ Turn in: }{1}}
\@writefile{toc}{\contentsline {section}{\numberline {1.2}About: Efficiency}{1}}
\@writefile{toc}{\contentsline {section}{\numberline {1.3}Intro to Trees}{2}}
\@writefile{toc}{\contentsline {paragraph}{Tree:}{2}}
\@writefile{toc}{\contentsline {paragraph}{Edge:}{2}}
\@writefile{toc}{\contentsline {paragraph}{Nodes:}{2}}
\@writefile{toc}{\contentsline {subparagraph}{Root Node:}{2}}
\@writefile{toc}{\contentsline {subparagraph}{Leaf Node:}{2}}
\@writefile{toc}{\contentsline {subparagraph}{Node Family:}{3}}
\@writefile{toc}{\contentsline {paragraph}{Question 1}{3}}
\@writefile{toc}{\contentsline {paragraph}{Path:}{5}}
\@writefile{toc}{\contentsline {subparagraph}{Path Length:}{5}}
\@writefile{toc}{\contentsline {paragraph}{Node Depth:}{5}}
\@writefile{toc}{\contentsline {paragraph}{Node Height:}{5}}
\@writefile{toc}{\contentsline {paragraph}{Question 2}{5}}
\@writefile{toc}{\contentsline {subsection}{\numberline {1.3.1}Traversals}{6}}
\@writefile{toc}{\contentsline {paragraph}{Pre-order traversal}{6}}
\@writefile{toc}{\contentsline {paragraph}{In-order traversal}{6}}
\@writefile{toc}{\contentsline {paragraph}{Post-order traversal}{6}}
\@writefile{toc}{\contentsline {paragraph}{Question 3}{9}}
\@writefile{toc}{\contentsline {paragraph}{Question 4}{9}}
\@writefile{toc}{\contentsline {paragraph}{Question 5}{9}}
\@writefile{toc}{\contentsline {paragraph}{Question 6}{10}}
\@writefile{toc}{\contentsline {paragraph}{Example:}{10}}
\@writefile{toc}{\contentsline {paragraph}{Question 7}{11}}
\@writefile{toc}{\contentsline {subsection}{\numberline {1.3.2}Thinking in subtrees}{12}}
\@writefile{toc}{\contentsline {subsection}{\numberline {1.3.3}Balanced trees}{13}}
\@writefile{lof}{\contentsline {figure}{\numberline {1.1}{\ignorespaces Add numbers: 4, 2, 1, 3, 6, 5, 7\relax }}{13}}
\@writefile{lof}{\contentsline {figure}{\numberline {1.2}{\ignorespaces Add numbers: 1, 2, 3, 4, 5, 6, 7\relax }}{13}}
\@writefile{toc}{\contentsline {subsection}{\numberline {1.3.4}Full trees}{14}}
\@writefile{toc}{\contentsline {subsection}{\numberline {1.3.5}Complete trees}{14}}
\newlabel{LastPage}{{}{14}}
\xdef\lastpage@lastpage{14}
\gdef\lastpage@lastpageHy{}
