\relax 
\providecommand\zref@newlabel[2]{}
\providecommand\tcolorbox@label[2]{}
\@writefile{toc}{\contentsline {section}{\numberline {1.1}Information}{1}}
\@writefile{toc}{\contentsline {paragraph}{ Topics: }{1}}
\@writefile{toc}{\contentsline {paragraph}{ Turn in: }{1}}
\newlabel{LastPage}{{}{1}}
\xdef\lastpage@lastpage{1}
\gdef\lastpage@lastpageHy{}
