\relax 
\providecommand\zref@newlabel[2]{}
\providecommand\tcolorbox@label[2]{}
\@writefile{toc}{\contentsline {paragraph}{ Topics: }{1}}
\@writefile{toc}{\contentsline {paragraph}{ Turn in: }{1}}
\@writefile{toc}{\contentsline {paragraph}{ Starter files: }{1}}
\@writefile{toc}{\contentsline {paragraph}{Expected functionality:}{5}}
\@writefile{toc}{\contentsline {paragraph}{Expected functionality:}{5}}
\@writefile{toc}{\contentsline {paragraph}{Expected functionality:}{5}}
\@writefile{toc}{\contentsline {paragraph}{Expected functionality:}{6}}
\newlabel{LastPage}{{}{6}}
\xdef\lastpage@lastpage{6}
\gdef\lastpage@lastpageHy{}
