\relax 
\providecommand\zref@newlabel[2]{}
\providecommand\tcolorbox@label[2]{}
\@writefile{toc}{\contentsline {section}{\numberline {1.1}Information}{1}}
\@writefile{toc}{\contentsline {paragraph}{ Topics: }{1}}
\@writefile{toc}{\contentsline {paragraph}{ Turn in: }{1}}
\@writefile{toc}{\contentsline {section}{\numberline {1.2}About Source Control, Git, and GitHub}{3}}
\@writefile{toc}{\contentsline {paragraph}{What is Source Control?}{3}}
\@writefile{toc}{\contentsline {subparagraph}{Storing your work on a server}{3}}
\@writefile{lof}{\contentsline {figure}{\numberline {1.1}{\ignorespaces Viewing a list of files on BitBucket\relax }}{3}}
\@writefile{lof}{\contentsline {figure}{\numberline {1.2}{\ignorespaces Viewing source code on GitHub\relax }}{3}}
\@writefile{toc}{\contentsline {subparagraph}{Keeping track of changes}{4}}
\@writefile{lof}{\contentsline {figure}{\numberline {1.3}{\ignorespaces Viewing change history on GitHub\relax }}{4}}
\@writefile{lof}{\contentsline {figure}{\numberline {1.4}{\ignorespaces Viewing line changes in GitHub - Red for lines removed, green for lines added\relax }}{4}}
\@writefile{toc}{\contentsline {subparagraph}{Merging}{4}}
\@writefile{lof}{\contentsline {figure}{\numberline {1.5}{\ignorespaces Merge conflict flags added to the code by Git\relax }}{5}}
\@writefile{toc}{\contentsline {paragraph}{What are some version control systems?}{5}}
\@writefile{toc}{\contentsline {subparagraph}{Git}{5}}
\@writefile{toc}{\contentsline {subparagraph}{Mercurial}{6}}
\@writefile{toc}{\contentsline {subparagraph}{TFS}{6}}
\@writefile{toc}{\contentsline {subparagraph}{Subversion (SVN)}{6}}
\@writefile{toc}{\contentsline {paragraph}{What are some source hosting sites?}{7}}
\@writefile{toc}{\contentsline {subparagraph}{GitHub}{7}}
\@writefile{toc}{\contentsline {subparagraph}{Bitbucket}{7}}
\@writefile{toc}{\contentsline {subparagraph}{CodePlex}{7}}
\@writefile{toc}{\contentsline {subparagraph}{Sourceforge}{7}}
\@writefile{toc}{\contentsline {paragraph}{What are we doing?}{7}}
\@writefile{toc}{\contentsline {section}{\numberline {1.3}Getting started}{7}}
\@writefile{toc}{\contentsline {subsection}{\numberline {1.3.1}Creating a GitHub account}{7}}
\@writefile{toc}{\contentsline {subsection}{\numberline {1.3.2}Creating a CS 250 repository}{8}}
\@writefile{toc}{\contentsline {paragraph}{What is a repository?}{8}}
\@writefile{toc}{\contentsline {paragraph}{Creating a repository}{8}}
\@writefile{toc}{\contentsline {subsection}{\numberline {1.3.3}Installing Git}{10}}
\@writefile{toc}{\contentsline {paragraph}{Lab computer:}{10}}
\@writefile{toc}{\contentsline {paragraph}{Windows:}{10}}
\@writefile{toc}{\contentsline {paragraph}{Linux:}{10}}
\@writefile{toc}{\contentsline {paragraph}{Mac:}{10}}
\@writefile{toc}{\contentsline {subsection}{\numberline {1.3.4}Cloning the repository}{11}}
\@writefile{toc}{\contentsline {section}{\numberline {1.4}Moving your files over}{12}}
\@writefile{toc}{\contentsline {section}{\numberline {1.5}Add, Commit, Pull, Push}{12}}
\@writefile{toc}{\contentsline {subsection}{\numberline {1.5.1}Add files}{12}}
\@writefile{lof}{\contentsline {figure}{\numberline {1.6}{\ignorespaces The CS 250 lab specs waiting to be committed. So meta.\relax }}{13}}
\@writefile{toc}{\contentsline {subsection}{\numberline {1.5.2}Commit files}{13}}
\@writefile{toc}{\contentsline {subsection}{\numberline {1.5.3}Pull and Push files}{14}}
\@writefile{lof}{\contentsline {figure}{\numberline {1.7}{\ignorespaces A successful push\relax }}{14}}
\@writefile{toc}{\contentsline {subsection}{\numberline {1.5.4}Setting name and email}{15}}
\@writefile{lof}{\contentsline {figure}{\numberline {1.8}{\ignorespaces Asking to set up config\relax }}{15}}
\@writefile{toc}{\contentsline {section}{\numberline {1.6}Viewing on the web interface}{16}}
\@writefile{lof}{\contentsline {figure}{\numberline {1.9}{\ignorespaces Repository on the web\relax }}{16}}
\@writefile{toc}{\contentsline {subsection}{\numberline {1.6.1}Commit history (FYI)}{17}}
\@writefile{lof}{\contentsline {figure}{\numberline {1.10}{\ignorespaces Repository on the web\relax }}{17}}
\@writefile{lof}{\contentsline {figure}{\numberline {1.11}{\ignorespaces Viewing all commits\relax }}{17}}
\@writefile{lof}{\contentsline {figure}{\numberline {1.12}{\ignorespaces Viewing one commit\relax }}{17}}
\@writefile{lof}{\contentsline {figure}{\numberline {1.13}{\ignorespaces Viewing one commit\relax }}{18}}
\@writefile{toc}{\contentsline {subsection}{\numberline {1.6.2}Wiki (FYI)}{19}}
\@writefile{toc}{\contentsline {subsection}{\numberline {1.6.3}Issues (FYI)}{20}}
\@writefile{toc}{\contentsline {subsection}{\numberline {1.6.4}Pages (FYI)}{21}}
\newlabel{LastPage}{{}{21}}
\xdef\lastpage@lastpage{21}
\gdef\lastpage@lastpageHy{}
