\relax 
\providecommand\zref@newlabel[2]{}
\@writefile{toc}{\contentsline {chapter}{\numberline {11}Searching and Sorting}{2}}
\@writefile{lof}{\addvspace {10\p@ }}
\@writefile{lot}{\addvspace {10\p@ }}
\@writefile{toc}{\contentsline {section}{\numberline {11.1}Input files}{2}}
\@writefile{toc}{\contentsline {section}{\numberline {11.2}Data files}{3}}
\@writefile{toc}{\contentsline {section}{\numberline {11.3}The program}{4}}
\@writefile{toc}{\contentsline {section}{\numberline {11.4}Program code}{6}}
\@writefile{toc}{\contentsline {subsection}{\numberline {11.4.1}Bubble Sort}{7}}
\@writefile{toc}{\contentsline {paragraph}{Efficiency:}{7}}
\@writefile{toc}{\contentsline {paragraph}{Pseudocode:}{7}}
\@writefile{toc}{\contentsline {subsection}{\numberline {11.4.2}Insertion Sort}{8}}
\@writefile{toc}{\contentsline {paragraph}{Pseudocode:}{8}}
\@writefile{toc}{\contentsline {subsection}{\numberline {11.4.3}Selection Sort}{9}}
\@writefile{toc}{\contentsline {subsection}{\numberline {11.4.4}Quick Sort}{10}}
\@writefile{toc}{\contentsline {subsection}{\numberline {11.4.5}Merge Sort}{11}}
\@writefile{toc}{\contentsline {section}{\numberline {11.5}Turn in}{11}}
\newlabel{LastPage}{{}{11}}
\xdef\lastpage@lastpage{11}
\gdef\lastpage@lastpageHy{}
