\contentsline {chapter}{\numberline {10}STL Queues}{2}
\contentsline {section}{\numberline {10.1}Program output}{3}
\contentsline {paragraph}{Processing jobs}{3}
\contentsline {section}{\numberline {10.2}Program code}{4}
\contentsline {section}{\numberline {10.3}Turn in}{4}
