\relax 
\providecommand\zref@newlabel[2]{}
\@writefile{toc}{\contentsline {chapter}{\numberline {10}STL Queues}{2}}
\@writefile{lof}{\addvspace {10\p@ }}
\@writefile{lot}{\addvspace {10\p@ }}
\@writefile{toc}{\contentsline {section}{\numberline {10.1}Program output}{3}}
\@writefile{toc}{\contentsline {paragraph}{Processing jobs}{3}}
\@writefile{toc}{\contentsline {section}{\numberline {10.2}Program code}{4}}
\@writefile{toc}{\contentsline {section}{\numberline {10.3}Turn in}{4}}
\newlabel{LastPage}{{}{4}}
\xdef\lastpage@lastpage{4}
\gdef\lastpage@lastpageHy{}
