\contentsline {chapter}{\numberline {9}STL Stacks}{2}
\contentsline {section}{\numberline {9.1}Input file}{2}
\contentsline {section}{\numberline {9.2}Program output}{3}
\contentsline {paragraph}{Main Menu}{3}
\contentsline {paragraph}{View all courses}{3}
\contentsline {paragraph}{Get course prerequisites}{4}
\contentsline {section}{\numberline {9.3}Program code}{5}
\contentsline {paragraph}{CourseNotFound exception}{5}
\contentsline {paragraph}{Course struct}{5}
\contentsline {paragraph}{CourseCatalog class}{6}
\contentsline {section}{\numberline {9.4}Functions to implement}{7}
\contentsline {subsection}{\numberline {9.4.1}ViewCourses}{7}
\contentsline {subsection}{\numberline {9.4.2}FindCourse}{7}
\contentsline {subsection}{\numberline {9.4.3}ViewPrereqs}{7}
\contentsline {section}{\numberline {9.5}Turn in}{8}
